Introducing Correlation Funnel - Customer Churn Example
…
Step 1 - Prepare Data as Binary Features

We use the binarize() function to produce a feature set of binary (0/1) variables. Numeric data are binned (using n_bins) into categorical data, then all categorical data is one-hot encoded to produce binary features. To prevent low frequency categories (high cardinality categories) from increasing the dimensionality (width of the resulting data frame), we use thresh_infreq = 0.01 and name_infreq = "OTHER" to group excess categories.

customer_churn_binarized_tbl <- customer_churn_tbl %>%
  select(-customerID) %>%
  mutate(TotalCharges = ifelse(is.na(TotalCharges), MonthlyCharges, TotalCharges)) %>%
  binarize(n_bins = 5, thresh_infreq = 0.01, name_infreq = "OTHER", one_hot = TRUE)

customer_churn_binarized_tbl
#> # A tibble: 7,043 x 60
#>    gender__Female gender__Male SeniorCitizen__0 SeniorCitizen__1
#>             <dbl>        <dbl>            <dbl>            <dbl>
#>  1              1            0                1                0
#>  2              0            1                1                0
#>  3              0            1                1                0
#>  4              0            1                1                0
#>  5              1            0                1                0
#>  6              1            0                1                0
#>  7              0            1                1                0
#>  8              1            0                1                0
#>  9              1            0                1                0
#> 10              0            1                1                0
#> # … with 7,033 more rows, and 56 more variables: Partner__No <dbl>,
#> #   Partner__Yes <dbl>, Dependents__No <dbl>, Dependents__Yes <dbl>,
#> #   `tenure__-Inf_6` <dbl>, tenure__6_20 <dbl>, tenure__20_40 <dbl>,
#> #   tenure__40_60 <dbl>, tenure__60_Inf <dbl>, PhoneService__No <dbl>,
#> #   PhoneService__Yes <dbl>, MultipleLines__No <dbl>,
#> #   MultipleLines__No_phone_service <dbl>, MultipleLines__Yes <dbl>,
#> #   InternetService__DSL <dbl>, InternetService__Fiber_optic <dbl>,
#> #   InternetService__No <dbl>, OnlineSecurity__No <dbl>,
#> #   OnlineSecurity__No_internet_service <dbl>, OnlineSecurity__Yes <dbl>,
…
Step 2 - Correlate to the Target

Next, we use correlate() to correlate the binary features to a target (in our case Customer Churn).

customer_churn_corr_tbl <- customer_churn_binarized_tbl %>%
  correlate(Churn__Yes)

customer_churn_corr_tbl
#> # A tibble: 60 x 3
#>    feature         bin              correlation
#>    <fct>           <chr>                  <dbl>
#>  1 Churn           No                    -1    
#>  2 Churn           Yes                    1    
#>  3 Contract        Month-to-month         0.405
#>  4 OnlineSecurity  No                     0.343
#>  5 TechSupport     No                     0.337
#>  6 tenure          -Inf_6                 0.309
#>  7 InternetService Fiber_optic            0.308
#>  8 Contract        Two_year              -0.302
#>  9 PaymentMethod   Electronic_check       0.302
#> 10 OnlineBackup    No                     0.268
#> # … with 50 more rows
…
